[ {
  "name" : "Minh Tú Nguyễn",
  "img" : 1
}, {
  "name" : "Nguyễn Phương Nguyên",
  "img" : 2
}, {
  "name" : "Nguyen Tuan Hoang",
  "img" : 3
}, {
  "name" : "Lưu Hồng Quyên",
  "img" : 4
}, {
  "name" : "Hằng Lê",
  "img" : 5
}, {
  "name" : "Trịnh Thành",
  "img" : 6
}, {
  "name" : "Trang Nhung",
  "img" : 7
}, {
  "name" : "Chan Hong Vuong",
  "img" : 8
}, {
  "name" : "Võ Thuỳ Dương",
  "img" : 9
}, {
  "name" : "Nhiên Nhiên",
  "img" : 10
}, {
  "name" : "Viet Hoang Bich",
  "img" : 11
}, {
  "name" : "Nguyễn Thành",
  "img" : 12
}, {
  "name" : "Phạm Ngọc Minh Châu",
  "img" : 13
}, {
  "name" : "Vương Trưng Cao",
  "img" : 14
}, {
  "name" : "Pham Duy Long",
  "img" : 15
}, {
  "name" : "Lý Gia Hân",
  "img" : 16
}, {
  "name" : "Hìn Thái",
  "img" : 17
}, {
  "name" : "Ky Tran Xuan",
  "img" : 18
}, {
  "name" : "Trần Hoàng Kim Tuyến",
  "img" : 19
}, {
  "name" : "Van Nguyen",
  "img" : 20
}, {
  "name" : "Hồng Nhung",
  "img" : 21
}, {
  "name" : "Bảo Ân",
  "img" : 22
}, {
  "name" : "Thành Đạt Nguyễn",
  "img" : 23
}, {
  "name" : "Dylan Le",
  "img" : 24
}, {
  "name" : "Lưu Đoan Trang",
  "img" : 25
}, {
  "name" : "Thanh Pham",
  "img" : 26
}, {
  "name" : "Mộc Hương",
  "img" : 27
}, {
  "name" : "Trang Thu Nguyễn",
  "img" : 28
}, {
  "name" : "Mi A Mi A",
  "img" : 29
}, {
  "name" : "Việt Hiền Trần",
  "img" : 30
}, {
  "name" : "Robin Cuong",
  "img" : 31
}, {
  "name" : "Ty Cara",
  "img" : 32
}, {
  "name" : "Mai Anh Thị Hồ",
  "img" : 33
}, {
  "name" : "An Trà",
  "img" : 34
}, {
  "name" : "Trang Nguyen",
  "img" : 35
}, {
  "name" : "Khanh Linh Mai",
  "img" : 36
}, {
  "name" : "Thùy Dung Trần",
  "img" : 37
}, {
  "name" : "Đinh Thị Thu Tiền",
  "img" : 38
}, {
  "name" : "Le Thi Hong Trang",
  "img" : 39
}, {
  "name" : "Trang Huyen Duong",
  "img" : 40
}, {
  "name" : "Hà Nguyễn",
  "img" : 41
}, {
  "name" : "Rainie Dũng",
  "img" : 42
}, {
  "name" : "Jenny Nguyen",
  "img" : 43
}, {
  "name" : "Hồ Tuyền",
  "img" : 44
}, {
  "name" : "Ng Minh Thy Thy",
  "img" : 45
}, {
  "name" : "Nam Bá Thái",
  "img" : 46
}, {
  "name" : "Lê Hoàng Ánh Dương",
  "img" : 47
}, {
  "name" : "Chuan Lê",
  "img" : 48
}, {
  "name" : "Nguyễn Đình Chinh",
  "img" : 49
}, {
  "name" : "Huỳnh Như",
  "img" : 50
}, {
  "name" : "Trung Nguyễn",
  "img" : 51
}, {
  "name" : "Thơ Trần",
  "img" : 52
}, {
  "name" : "Trần Nguyễn Thanh Như",
  "img" : 53
}, {
  "name" : "Minh Ky",
  "img" : 54
}, {
  "name" : "Hoàng Sơn",
  "img" : 55
}, {
  "name" : "Duy Sơn",
  "img" : 56
}, {
  "name" : "Dzung Thaj",
  "img" : 57
}, {
  "name" : "Linh Ky",
  "img" : 58
}, {
  "name" : "Bùi Tố Nga",
  "img" : 59
}, {
  "name" : "Silver Tiêu",
  "img" : 60
}, {
  "name" : "Huy Le",
  "img" : 61
}, {
  "name" : "Trần Thị Thanh Tú",
  "img" : 62
}, {
  "name" : "Loi Nguyen",
  "img" : 63
}, {
  "name" : "Thành NaHy",
  "img" : 64
}, {
  "name" : "Thuý Vi Phạm",
  "img" : 65
}, {
  "name" : "An Thuy Nguyen",
  "img" : 66
}, {
  "name" : "Đình Phong",
  "img" : 67
}, {
  "name" : "Lương Nguyễn Phương Tú",
  "img" : 68
}, {
  "name" : "Manh Ha Hoang",
  "img" : 69
}, {
  "name" : "Nguyễn Quốc Trường",
  "img" : 70
}, {
  "name" : "Sywen Liaw",
  "img" : 71
}, {
  "name" : "Thái Phạm",
  "img" : 72
}, {
  "name" : "Lê Quang",
  "img" : 73
}, {
  "name" : "Dánh Châu",
  "img" : 74
}, {
  "name" : "Ken Hoàng Thiên Pham",
  "img" : 75
}, {
  "name" : "Lê Thương",
  "img" : 76
}, {
  "name" : "Mỹ Duyên",
  "img" : 77
}, {
  "name" : "Trang Liang",
  "img" : 78
}, {
  "name" : "Huy Anh Đức Trần",
  "img" : 79
}, {
  "name" : "Tuấn Khương",
  "img" : 80
}, {
  "name" : "Ro Ah",
  "img" : 81
}, {
  "name" : "Ngọc Treng",
  "img" : 82
}, {
  "name" : "MonMin Mụp Mụp",
  "img" : 83
}, {
  "name" : "Mai Quang Tân",
  "img" : 84
}, {
  "name" : "Ngọc Trần",
  "img" : 85
}, {
  "name" : "Châu Hải Nam",
  "img" : 86
}, {
  "name" : "Nguyễn Việt Hà",
  "img" : 87
}, {
  "name" : "Nhi Lê",
  "img" : 88
}, {
  "name" : "Phùng Minh Thư",
  "img" : 89
}, {
  "name" : "Nguyễn Riêm Ba",
  "img" : 90
}, {
  "name" : "Huỳnh Thị Diễm Phúc",
  "img" : 91
}, {
  "name" : "Nguyễn Trân",
  "img" : 92
}, {
  "name" : "Bé Bóng",
  "img" : 93
}, {
  "name" : "Tú Nguyễn",
  "img" : 94
}, {
  "name" : "Tú Quyên",
  "img" : 95
}, {
  "name" : "Nguyễn Ngọc Hùng",
  "img" : 96
}, {
  "name" : "Trần Ngọc Anh",
  "img" : 97
}, {
  "name" : "Lâm Tú Vũ",
  "img" : 98
}, {
  "name" : "Phươnganh Nguyễn",
  "img" : 99
}, {
  "name" : "Tý NhÓk",
  "img" : 100
} ]