{
    'KeyCode':"cmstungdt",
    'MyGame':"allgame",
    'ForNewUser':1,
    'EventStartDate':"2012-10-15",
    'EventEndDate':"2012-10-30",
    
    'StartCrossCamGioi':"2012-05-01",
    'EndCrossCamGioi':"2012-10-30"
}